{ "dns": {
  "servers": [
    "1.1.1.1",
    {
      "address": "localhost",
      "port": 53,
      "domains": [
        "domain:akadns.net",
        "domain:akam.net",
        "domain:akamai.com",
        "domain:akamai.net",
        "domain:akamaiedge.net",
        "domain:akamaihd.net",
        "domain:akamaistream.net",
        "domain:akamaitech.net",
        "domain:akamaitechnologies.com",
        "domain:akamaitechnologies.fr",
        "domain:akamaized.net",
        "domain:edgekey.net",
        "domain:edgesuite.net",
        "domain:srip.net",
        "domain:footprint.net",
        "domain:level3.net",
        "domain:llnwd.net",
        "domain:edgecastcdn.net",
        "domain:cloudfront.net",
        "domain:netflix.com",
        "domain:netflix.net",
        "domain:nflximg.net",
        "domain:nflxvideo.net",
        "domain:nflxso.net",
        "domain:nflxext.com",
        "domain:hulu.com",
        "domain:huluim.com",
        "domain:hbonow.com",
        "domain:hbogo.com",
        "domain:hbo.com",
        "domain:amazon.com",
        "domain:amazon.co.uk",
        "domain:amazonvideo.com",
        "domain:crackle.com",
        "domain:pandora.com",
        "domain:vudu.com",
        "domain:blinkbox.com",
        "domain:abc.com",
        "domain:fox.com",
        "domain:theplatform.com",
        "domain:nbc.com",
        "domain:nbcuni.com",
        "domain:ip2location.com",
        "domain:pbs.org",
        "domain:warnerbros.com",
        "domain:southpark.cc.com",
        "domain:cbs.com",
        "domain:brightcove.com",
        "domain:cwtv.com",
        "domain:spike.com",
        "domain:go.com",
        "domain:mtv.com",
        "domain:mtvnservices.com",
        "domain:playstation.net",
        "domain:uplynk.com",
        "domain:maxmind.com",
        "domain:disney.com",
        "domain:disneyjunior.com",
        "domain:xboxlive.com",
        "domain:lovefilm.com",
        "domain:turner.com",
        "domain:amctv.com",
        "domain:sho.com",
        "domain:mog.com",
        "domain:wdtvlive.com",
        "domain:beinsportsconnect.tv",
        "domain:beinsportsconnect.net",
        "domain:fig.bbc.co.uk",
        "domain:open.live.bbc.co.uk",
        "domain:sa.bbc.co.uk",
        "domain:www.bbc.co.uk",
        "domain:crunchyroll.com",
        "domain:ifconfig.co",
        "domain:omtrdc.net",
        "domain:sling.com",
        "domain:movetv.com"
      ]
    }
  ]
},
  "inbounds": [
  ],
  "log": {
    "access": "/var/log/v2ray/access.log",
    "error": "/var/log/v2ray/error.log",
    "loglevel": "info"
  },
  "outbounds": [{
    "sendThrough": "0.0.0.0",
    "protocol": "freedom",
    "settings": {
      "domainStrategy": "UseIPv4"
    }
  },
    {
      "protocol": "blackhole",
      "settings": {"response": {
        "type": "http"
      }},
      "tag": "blocked"
    },{
      "protocol": "blackhole",
      "settings": {"response": {
        "type": "none"
      }},
      "tag": "blockedNodeUserLimited"
    }, {
      "protocol": "blackhole",
      "settings": {"response": {
        "type": "http"
      }},
      "tag": "blockedrule"
    },{
      "protocol": "blackhole",
      "settings": {"response": {
        "type": "http"
      }},
      "tag": "blockedip"
    },
    {
      "protocol": "blackhole",
      "settings": {},
      "tag": "block"
    }
  ],
  "policy": {
    "levels": {
      "0": {
        "connIdle": 300,
        "downlinkOnly": 0,
        "handshake": 4,
        "statsUserDownlink": true,
        "statsUserUplink": true,
        "uplinkOnly": 0
      }
    },
    "system": {
      "statsInboundDownlink": false,
      "statsInboundUplink": false
    }
  },
  "reverse": {},
  "routing": {
    "rules": [{
      "outboundTag": "blocked",
      "protocol": [
        "bittorrent"
      ],
      "type": "field"
    },{
      "outboundTag": "blockedNodeUserLimited",
      "user": [
        "userlimitedBlocked@v2v3.xxx"
      ],
      "type": "field"
    }
    ],
    "domainStrategy": "AsIs"
  },
  "stats": {},
  "sspanel": {
    "nodeid": 123456,
    "checkRate": 60,
    "SpeedTestCheckRate": 6,
    "panelUrl": "https://google.com",
    "panelKey": "55fUxDGFzH3n",
    "downWithPanel": 1,
    "mu_regex":  "%5m%id.%suffix",
    "mu_suffix": "microsoft.com",
    "mysql": {
      "host": "https://bing.com",
      "port": 3306,
      "user": "demo_user",
      "password": "demo_dbpassword",
      "dbname": "demo_dbname"
    },
    "paneltype": 0,
    "usemysql": 0,
    "cf_key": "bbbbbbbbbbbbbbbbbb",
    "cf_email": "v2ray@v2ray.com",
    "proxy_tcp": 0,
    "ali_key": "sdfsdfsdfljlbjkljlkjsdfoiwje",
    "ali_secret": "jlsdflanljkljlfdsaklkjflsa",
    "cache_duration_sec": 60,
    "html_path": ""
  }
}
